{
  "containerDefinitions": [
    {
      "portMappings": [
        {
          "hostPort": 0,
          "protocol": "tcp",
          "containerPort": 3000
        }
      ],
      "cpu": 1,
      "image": "407800484574.dkr.ecr.us-west-2.amazonaws.com/my-express-app:latest",
      "essential": true,
      "name": "my-express-app"
    }
  ],
  "memory": "128",
  "family": "my-express-app",
  "requiresCompatibilities": ["EC2"],
  "cpu": "128"
}
